ENVT0100,LM:2018/01/16 04:56:00:646,DS:0000006978,CS:12331,MA:00-E0-4C-48-16-5F,EI:           
nNumOfVars=74
Var1 {
	sName="CycleFeedInEnable"
	sType="Boolean"
	bValue=False
}
Var2 {
	sName="BiocTimeOffsetEnable"
	sType="Boolean"
	bValue=False
}
Var3 {
	sName="PressLocationEnable"
	sType="Boolean"
	bValue=False
}
Var4 {
	sName="SlotSensorEnable"
	sType="Boolean"
	bValue=True
}
Var5 {
	sName="IOStateReportEnable"
	sType="Boolean"
	bValue=False
}
Var6 {
	sName="Tcp202PrintEnable"
	sType="Boolean"
	bValue=True
}
Var7 {
	sName="PutChipOffset"
	sType="Integer"
	nValue=3
}
Var8 {
	sName="GriperStateCheckTimeout"
	sType="Integer"
	nValue=1
}
Var9 {
	sName="GetChipSafeZ"
	sType="Integer"
	nValue=-1
}
Var10 {
	sName="TransChipTimeRef"
	sType="Integer"
	nValue=10
}
Var11 {
	sName="RobotID$"
	sType="String"
	sValue="R3"
}
Var12 {
	sName="ChipCount"
	sType="Integer"
	nValue=6
}
Var13 {
	sName="ImagingCount"
	sType="Integer"
	nValue=0
}
Var14 {
	sName="ImagingTime"
	sType="Integer"
	nValue=480
}
Var15 {
	sName="WaitingTime2LoadChip"
	sType="Integer"
	nValue=105
}
Var16 {
	sName="LoadedChipCount"
	sType="Integer"
	nValue=0
}
Var17 {
	sName="SlotSeneor"
	sType="Integer"
	nDims=1
	nUBound1=19
	nValue0=5
	nValue1=7
	nValue2=8
	nValue3=9
	nValue4=10
	nValue5=23
	nValue6=6
	nValue7=6
	nValue8=7
	nValue9=8
	nValue10=9
	nValue11=6
	nValue12=6
	nValue13=16
	nValue14=17
	nValue15=18
	nValue16=19
	nValue17=23
	nValue18=5
	nValue19=0
}
Var18 {
	sName="NextSlotIds"
	sType="Integer"
	nDims=1
	nUBound1=19
	nValue0=1
	nValue1=2
	nValue2=3
	nValue3=4
	nValue4=5
	nValue5=6
	nValue6=8
	nValue7=8
	nValue8=9
	nValue9=10
	nValue10=11
	nValue11=13
	nValue12=13
	nValue13=18
	nValue14=18
	nValue15=16
	nValue16=17
	nValue17=18
	nValue18=0
	nValue19=0
}
Var19 {
	sName="BiocReactionTime"
	sType="Integer"
	nDims=1
	nUBound1=19
	nValue0=0
	nValue1=10
	nValue2=20
	nValue3=80
	nValue4=60
	nValue5=30
	nValue6=20
	nValue7=30
	nValue8=20
	nValue9=20
	nValue10=80
	nValue11=10
	nValue12=30
	nValue13=80
	nValue14=10
	nValue15=30
	nValue16=30
	nValue17=30
	nValue18=0
	nValue19=0
}
Var20 {
	sName="SpeedSlow"
	sType="Integer"
	nValue=8
}
Var21 {
	sName="SpeedFast"
	sType="Integer"
	nValue=30
}
Var22 {
	sName="SpeedU"
	sType="Integer"
	nValue=15
}
Var23 {
	sName="AccelSpeed"
	sType="Integer"
	nValue=50
}
Var24 {
	sName="DecelSpeed"
	sType="Integer"
	nValue=50
}
Var25 {
	sName="DepartSpeed"
	sType="Integer"
	nValue=0
}
Var26 {
	sName="ApproSpeed"
	sType="Integer"
	nValue=0
}
Var27 {
	sName="PowerHighEnable"
	sType="Integer"
	nValue=1
}
Var28 {
	sName="MovSpeed"
	sType="Integer"
	nValue=20
}
Var29 {
	sName="MovSpeedFast"
	sType="Integer"
	nValue=100
}
Var30 {
	sName="MovAccelSpeed"
	sType="Integer"
	nValue=2000
}
Var31 {
	sName="MovDecelSpeed"
	sType="Integer"
	nValue=2000
}
Var32 {
	sName="MachineVersion"
	sType="Integer"
	nValue=2
}
Var33 {
	sName="RunStatus"
	sType="Integer"
	nValue=0
}
Var34 {
	sName="TurntableActionTimeout"
	sType="Integer"
	nValue=12
}
Var35 {
	sName="SlotPosGetEnable"
	sType="Boolean"
	nDims=1
	nUBound1=19
	bValue0=False
	bValue1=False
	bValue2=False
	bValue3=False
	bValue4=False
	bValue5=False
	bValue6=False
	bValue7=False
	bValue8=False
	bValue9=False
	bValue10=False
	bValue11=False
	bValue12=False
	bValue13=False
	bValue14=False
	bValue15=False
	bValue16=False
	bValue17=False
	bValue18=False
	bValue19=False
}
Var36 {
	sName="BiocMaintEnable"
	sType="Integer"
	nValue=0
}
Var37 {
	sName="ImagerSafeDist"
	sType="Integer"
	nValue=0
}
Var38 {
	sName="LoaderSafeDist"
	sType="Integer"
	nValue=0
}
Var39 {
	sName="UnloaderSafeDist"
	sType="Integer"
	nValue=0
}
Var40 {
	sName="BlowserSafeDist"
	sType="Integer"
	nValue=0
}
Var41 {
	sName="RecyclerSafeDist"
	sType="Integer"
	nValue=0
}
Var42 {
	sName="DropSREWaitingTime"
	sType="Integer"
	nValue=0
}
Var43 {
	sName="ImagerVacSeneor"
	sType="Integer"
	nDims=1
	nUBound1=12
	nValue0=0
	nValue1=0
	nValue2=0
	nValue3=0
	nValue4=0
	nValue5=0
	nValue6=0
	nValue7=0
	nValue8=0
	nValue9=0
	nValue10=0
	nValue11=0
	nValue12=0
}
Var44 {
	sName="ImagerVacSW"
	sType="Integer"
	nDims=1
	nUBound1=12
	nValue0=0
	nValue1=0
	nValue2=0
	nValue3=0
	nValue4=0
	nValue5=0
	nValue6=0
	nValue7=0
	nValue8=0
	nValue9=0
	nValue10=0
	nValue11=0
	nValue12=0
}
Var45 {
	sName="ImagerEnable"
	sType="Integer"
	nDims=1
	nUBound1=12
	nValue0=0
	nValue1=0
	nValue2=0
	nValue3=0
	nValue4=0
	nValue5=0
	nValue6=0
	nValue7=0
	nValue8=0
	nValue9=0
	nValue10=0
	nValue11=0
	nValue12=0
}
Var46 {
	sName="PassPt2ImgEnable"
	sType="Integer"
	nDims=1
	nUBound1=12
	nValue0=0
	nValue1=0
	nValue2=0
	nValue3=0
	nValue4=0
	nValue5=0
	nValue6=0
	nValue7=0
	nValue8=0
	nValue9=0
	nValue10=0
	nValue11=0
	nValue12=0
}
Var47 {
	sName="RecycleSeneor"
	sType="Integer"
	nDims=1
	nUBound1=3
	nValue0=0
	nValue1=0
	nValue2=0
	nValue3=0
}
Var48 {
	sName="ImagerReadyOffsetX"
	sType="Real"
	rValue=0
}
Var49 {
	sName="ImagerGetZDnOffset"
	sType="Real"
	rValue=0
}
Var50 {
	sName="ImagerGetZUpOffset"
	sType="Real"
	rValue=0
}
Var51 {
	sName="ImagerAlignReturnOffsetX"
	sType="Real"
	rValue=0
}
Var52 {
	sName="ImagerAlignReturnOffsetY"
	sType="Real"
	rValue=0
}
Var53 {
	sName="ImagerAlignReturnOffsetZ"
	sType="Real"
	rValue=0
}
Var54 {
	sName="ImagerSAlignOffsetX"
	sType="Real"
	rValue=0
}
Var55 {
	sName="ImagerSAlignOffsetY"
	sType="Real"
	rValue=0
}
Var56 {
	sName="ImagerSAlignOffsetZ"
	sType="Real"
	rValue=0
}
Var57 {
	sName="ImagerEAlignOffsetX"
	sType="Real"
	rValue=0
}
Var58 {
	sName="ImagerEAlignOffsetY"
	sType="Real"
	rValue=0
}
Var59 {
	sName="ImagerEAlignOffsetZ"
	sType="Real"
	rValue=0
}
Var60 {
	sName="DropSREOffsetX"
	sType="Real"
	rValue=0
}
Var61 {
	sName="DropSREOffsetRX"
	sType="Real"
	rValue=0
}
Var62 {
	sName="DropSREOffsetRY"
	sType="Real"
	rValue=0
}
Var63 {
	sName="BlowerReadyOffsetY"
	sType="Real"
	rValue=0
}
Var64 {
	sName="LoaderReadyOffsetX"
	sType="Real"
	rValue=0
}
Var65 {
	sName="LoaderReadyOffsetY"
	sType="Real"
	rValue=0
}
Var66 {
	sName="LoaderReadyOffsetZ"
	sType="Real"
	rValue=0
}
Var67 {
	sName="UnloaderReadyOffsetX"
	sType="Real"
	rValue=0
}
Var68 {
	sName="UnloaderReadyOffsetY"
	sType="Real"
	rValue=0
}
Var69 {
	sName="UnloaderReadyOffsetZ"
	sType="Real"
	rValue=0
}
Var70 {
	sName="RecyclerReadyOffsetX"
	sType="Real"
	rValue=0
}
Var71 {
	sName="RecyclerReadyOffsetY"
	sType="Real"
	rValue=0
}
Var72 {
	sName="RecyclerReadyOffsetZ"
	sType="Real"
	rValue=0
}
Var73 {
	sName="ChipLength"
	sType="Real"
	rValue=0
}
Var74 {
	sName="RecyclerEnable"
	sType="Boolean"
	bValue=True
}
